Introduction to data wrangling with the tidyverse
…
While doing things by hand might be acceptable and easier for small datasets, the by-hand approach does not scale to large datasets.  In this age where we can easily collect massive datasets online, you will not thrive as a scientist if you do not learn some key data wrangling skills.  Although every dataset presents unique challenges, there are some systematic principles you should follow that will make your analyses easier, less error-prone, more efficient, and more reproducible.  

In this lesson you will see how data science skills will allow you to efficiently get answers to nearly any question you might want to ask about your data.  It will seem to go slowly while you are learning, but soon enough, you will experience huge gains in efficiency.  Moreover, your research will become more transparent and reproducible, because you can easily share all the data processing stages in a very easy-to-understand format.

The babynames database

To demonstrate the power of these dplyr verbs, we will work with the babynames data from the babynames add-on package.  The babynames dataset has historical information about births of babies in the U.S.  (For more local color check out the ukbabynames package, which has babynames from the UK.) We will also need the ggplot2 package so that we can make some cool graphs.

Load in the packages by typing the following lines at the top of a new R script.  Don’t forget to send the commands to the console window using Ctrl-Enter, or the rest of the commands in this lesson will fail!

The package babynames contains an object of the same name which we can get information about by printing it to the console:

babynames

# A tibble: 1,924,665 x 5
    year sex   name          n   prop
   <dbl> <chr> <chr>     <int>  <dbl>
 1  1880 F     Mary       7065 0.0724
 2  1880 F     Anna       2604 0.0267
 3  1880 F     Emma       2003 0.0205
 4  1880 F     Elizabeth  1939 0.0199
 5  1880 F     Minnie     1746 0.0179
 6  1880 F     Margaret   1578 0.0162
 7  1880 F     Ida        1472 0.0151
 8  1880 F     Alice      1414 0.0145
 9  1880 F     Bertha     1320 0.0135
10  1880 F     Sarah      1288 0.0132
# … with 1,924,655 more rows
…
group_by()
Organize the observations into groups

summarise()
Derive aggregate variables for groups of observations

These six verbs are also the names of functions in Wickham’s brilliant dplyr add-on package.  They are known as ’single table verbs’ because they only operate on one table at a time.  In your next lab, you will learn two-table verbs that you can use to merge tables together.  Although the operations of these functions may seem very simplistic, it’s amazing what you can accomplish when you string them together.

select(): choosing which variables to keep

Now, of the two numeric measurements of name popularity, prop is probably more useful than n because it takes into account that different numbers of babies are born in different years.  If we wanted to create a data set that included everything but the variable n, we could do this using the dplyr::select() function.

select(babynames, year, sex, name, prop)

# A tibble: 1,924,665 x 4
    year sex   name        prop
   <dbl> <chr> <chr>      <dbl>
 1  1880 F     Mary      0.0724
 2  1880 F     Anna      0.0267
 3  1880 F     Emma      0.0205
 4  1880 F     Elizabeth 0.0199
 5  1880 F     Minnie    0.0179
 6  1880 F     Margaret  0.0162
 7  1880 F     Ida       0.0151
 8  1880 F     Alice     0.0145
 9  1880 F     Bertha    0.0135
10  1880 F     Sarah     0.0132
# … with 1,924,655 more rows

The first argument to the select() function is a tibble, and further arguments are the names of columns you want to include.  But sometimes all you want to do is exclude a single column, and select() allows you to do that while saving typing by putting a minus sign in front of the column:

select(babynames, -n)

# A tibble: 1,924,665 x 4
    year sex   name        prop
   <dbl> <chr> <chr>      <dbl>
 1  1880 F     Mary      0.0724
 2  1880 F     Anna      0.0267
 3  1880 F     Emma      0.0205
 4  1880 F     Elizabeth 0.0199
 5  1880 F     Minnie    0.0179
 6  1880 F     Margaret  0.0162
 7  1880 F     Ida       0.0151
 8  1880 F     Alice     0.0145
 9  1880 F     Bertha    0.0135
10  1880 F     Sarah     0.0132
# … with 1,924,655 more rows

Note that select() does not change the original tibble, but makes a new tibble with the specified columns.  If you don’t save this new tibble to a variable, it will be printed to the console and lost forever.  So if you want to keep it around, assign it to a variable, e.g., bbn <- select(babynames, -n).

Another trick is to select columns by column number (i.e., ordinal position) in the table rather than by name. For instance

select(babynames, 3)

# A tibble: 1,924,665 x 1
   name     
   <chr>    
 1 Mary     
 2 Anna     
 3 Emma     
 4 Elizabeth
 5 Minnie   
 6 Margaret 
 7 Ida      
 8 Alice    
 9 Bertha   
10 Sarah    
# … with 1,924,655 more rows
Selects the third column name from the table.  Likewise, select(babynames, -3) selects everything but the third column.

A few select() tricks

selecting a range of columns

You can select a range of columns using the : operator. From the intro materials, you may recall that 1:5 gives the integer sequence 1 to 5.

[1] 1 2 3 4 5

You can use the colon with select to select a range. You can even use : with names instead of integer positions. For instance:

select(babynames, name:prop)

# A tibble: 1,924,665 x 3
   name          n   prop
   <chr>     <int>  <dbl>
 1 Mary       7065 0.0724
 2 Anna       2604 0.0267
 3 Emma       2003 0.0205
 4 Elizabeth  1939 0.0199
 5 Minnie     1746 0.0179
 6 Margaret   1578 0.0162
 7 Ida        1472 0.0151
 8 Alice      1414 0.0145
 9 Bertha     1320 0.0135
10 Sarah      1288 0.0132
# … with 1,924,655 more rows

gives the same thing as

select(babynames, 3:5)

# A tibble: 1,924,665 x 3
   name          n   prop
   <chr>     <int>  <dbl>
 1 Mary       7065 0.0724
 2 Anna       2604 0.0267
 3 Emma       2003 0.0205
 4 Elizabeth  1939 0.0199
 5 Minnie     1746 0.0179
 6 Margaret   1578 0.0162
 7 Ida        1472 0.0151
 8 Alice      1414 0.0145
 9 Bertha     1320 0.0135
10 Sarah      1288 0.0132
# … with 1,924,655 more rows

weird column names

Sometimes you load in a file and the column names are not legal names for R variables. They may have spaces or other special characters. You can reference the weird variables by escaping them between backticks, like so: select(dat, `my weird column name!`).  This may be easier than referencing the column number.  Another tip is to use tab completion (start typing the first few characters, then press TAB) so that you don’t make a typo when typing a long variable name.

renaming columns

You can rename columns ’on the fly’ during select using the syntax newname = oldname. For example:

select(babynames,
       birth_year = year, sex, child_name = name,
       number_of_babies = n, proportion = prop)

# A tibble: 1,924,665 x 5
   birth_year sex   child_name number_of_babies proportion
        <dbl> <chr> <chr>                 <int>      <dbl>
 1       1880 F     Mary                   7065     0.0724
 2       1880 F     Anna                   2604     0.0267
 3       1880 F     Emma                   2003     0.0205
 4       1880 F     Elizabeth              1939     0.0199
 5       1880 F     Minnie                 1746     0.0179
 6       1880 F     Margaret               1578     0.0162
 7       1880 F     Ida                    1472     0.0151
 8       1880 F     Alice                  1414     0.0145
 9       1880 F     Bertha                 1320     0.0135
10       1880 F     Sarah                  1288     0.0132
# … with 1,924,655 more rows

or, if you want to select all columns while renaming one or more, use rename() instead of select().

rename(babynames, birth_year = year, number_of_babies = n)

# A tibble: 1,924,665 x 5
   birth_year sex   name      number_of_babies   prop
        <dbl> <chr> <chr>                <int>  <dbl>
 1       1880 F     Mary                  7065 0.0724
 2       1880 F     Anna                  2604 0.0267
 3       1880 F     Emma                  2003 0.0205
 4       1880 F     Elizabeth             1939 0.0199
 5       1880 F     Minnie                1746 0.0179
 6       1880 F     Margaret              1578 0.0162
 7       1880 F     Ida                   1472 0.0151
 8       1880 F     Alice                 1414 0.0145
 9       1880 F     Bertha                1320 0.0135
10       1880 F     Sarah                 1288 0.0132
# … with 1,924,655 more rows

’fronting’ a column or columns

If you want to just get a column or columns in the first position, without having to type all of the column names, 
type the column names to put in front, followed by the everything() helper function.

## put babynames and prop first
select(babynames, prop, everything())
## equivalent to:
## select(prop, year, sex, name, n)

# A tibble: 1,924,665 x 5
     prop  year sex   name          n
    <dbl> <dbl> <chr> <chr>     <int>
 1 0.0724  1880 F     Mary       7065
 2 0.0267  1880 F     Anna       2604
 3 0.0205  1880 F     Emma       2003
 4 0.0199  1880 F     Elizabeth  1939
 5 0.0179  1880 F     Minnie     1746
 6 0.0162  1880 F     Margaret   1578
 7 0.0151  1880 F     Ida        1472
 8 0.0145  1880 F     Alice      1414
 9 0.0135  1880 F     Bertha     1320
10 0.0132  1880 F     Sarah      1288
# … with 1,924,655 more rows

See ?select for more helper functions (e.g., starts_with(), ends_with(), etc).

Exercises with select()

Use select() to make a table that looks like this from the built-in starwars dataset

# A tibble: 87 x 4
   name               eyes      home     species
   <chr>              <chr>     <chr>    <chr>  
 1 Luke Skywalker     blue      Tatooine Human  
 2 C-3PO              yellow    Tatooine Droid  
 3 R2-D2              red       Naboo    Droid  
 4 Darth Vader        yellow    Tatooine Human  
 5 Leia Organa        brown     Alderaan Human  
 6 Owen Lars          blue      Tatooine Human  
 7 Beru Whitesun lars blue      Tatooine Human  
 8 R5-D4              red       Tatooine Droid  
 9 Biggs Darklighter  brown     Tatooine Human  
10 Obi-Wan Kenobi     blue-gray Stewjon  Human  
# … with 77 more rows
…
── Column specification ────────────────────────────────────────────────────────
cols(
  Country = col_character(),
  Year = col_double(),
  `Infant mortality rate (probability of dying between birth and age 1 per 1000 live births)` = col_character()
)

Rows: 5,044
Columns: 3
$ Country                                                                                     <chr> …
$ Year                                                                                        <dbl> …
$ `Infant mortality rate (probability of dying between birth and age 1 per 1000 live births)` <chr> …

# A tibble: 5,044 x 3
   Country      Year IMR             
   <chr>       <dbl> <chr>           
 1 Afghanistan  2015 66.3 [52.7-83.9]
 2 Afghanistan  2014 68.1 [55.7-83.6]
 3 Afghanistan  2013 69.9 [58.7-83.5]
 4 Afghanistan  2012 71.7 [61.6-83.7]
 5 Afghanistan  2011 73.4 [64.4-84.2]
 6 Afghanistan  2010 75.1 [66.9-85.1]
 7 Afghanistan  2009 76.8 [69.0-86.1]
 8 Afghanistan  2008 78.6 [71.2-87.3]
 9 Afghanistan  2007 80.4 [73.4-88.9]
10 Afghanistan  2006 82.3 [75.5-90.7]
# … with 5,034 more rows

arrange(): putting records in order

The dplyr verb arrange() will sort the rows in the table according to the columns you supply.  Try it:

arrange(babynames, name)

# A tibble: 1,924,665 x 5
    year sex   name      n       prop
   <dbl> <chr> <chr> <int>      <dbl>
 1  2007 M     Aaban     5 0.00000226
 2  2009 M     Aaban     6 0.00000283
 3  2010 M     Aaban     9 0.00000439
 4  2011 M     Aaban    11 0.00000542
 5  2012 M     Aaban    11 0.00000543
 6  2013 M     Aaban    14 0.00000694
 7  2014 M     Aaban    16 0.00000783
 8  2015 M     Aaban    15 0.00000736
 9  2016 M     Aaban     9 0.00000446
10  2017 M     Aaban    11 0.0000056 
# … with 1,924,655 more rows

The data are now sorted in ascending alphabetical order by name.  The default is to sort in ascending order.  If we want it descending, we wrap the variable name in the desc() function.  For instance, to sort by year in descending order:

arrange(babynames, desc(year))

# A tibble: 1,924,665 x 5
    year sex   name          n    prop
   <dbl> <chr> <chr>     <int>   <dbl>
 1  2017 F     Emma      19738 0.0105 
 2  2017 F     Olivia    18632 0.00994
 3  2017 F     Ava       15902 0.00848
 4  2017 F     Isabella  15100 0.00805
 5  2017 F     Sophia    14831 0.00791
 6  2017 F     Mia       13437 0.00717
 7  2017 F     Charlotte 12893 0.00688
 8  2017 F     Amelia    11800 0.00629
 9  2017 F     Evelyn    10675 0.00569
10  2017 F     Abigail   10551 0.00563
# … with 1,924,655 more rows

We can sort by more than one column.  arrange(dat, varname1, varname2, varname3, ..., varnameN) will sort by varname1, breaking ties by varname2, then break any further ties by varname3, etc.

Exercises with arrange()

Arrange the babynames dataset in descending order by year with the most popular names for each year coming first

Solution

arrange(babynames, desc(year), desc(n))

# A tibble: 1,924,665 x 5
    year sex   name         n    prop
   <dbl> <chr> <chr>    <int>   <dbl>
 1  2017 F     Emma     19738 0.0105 
 2  2017 M     Liam     18728 0.00954
 3  2017 F     Olivia   18632 0.00994
 4  2017 M     Noah     18326 0.00933
 5  2017 F     Ava      15902 0.00848
 6  2017 F     Isabella 15100 0.00805
 7  2017 M     William  14904 0.00759
 8  2017 F     Sophia   14831 0.00791
 9  2017 M     James    14232 0.00725
10  2017 M     Logan    13974 0.00712
# … with 1,924,655 more rows

filter(): subsetting observations

Often what we want to do is to focus on some subset of observations;
say, only babies born after some year, or only babies named “Mary”.  In other words, we want to pull out observations based on some arbitrary criteria.  We do this using the verb filter().  The filter() function is a bit more involved than the other operators, and requires more detailed explanation, but this is because it is also extremely powerful.  Can you guess what the following function call will do?

filter(babynames, year > 2000)

# A tibble: 562,156 x 5
    year sex   name          n    prop
   <dbl> <chr> <chr>     <int>   <dbl>
 1  2001 F     Emily     25055 0.0127 
 2  2001 F     Madison   22164 0.0112 
 3  2001 F     Hannah    20712 0.0105 
 4  2001 F     Ashley    16526 0.00835
 5  2001 F     Alexis    16401 0.00828
 6  2001 F     Sarah     15896 0.00803
 7  2001 F     Samantha  15862 0.00801
 8  2001 F     Abigail   14807 0.00748
 9  2001 F     Elizabeth 14784 0.00747
10  2001 F     Olivia    13978 0.00706
# … with 562,146 more rows
…
A != B
not equal
A does not exactly equal B

A %in% B
in
A is an element of vector B

If you want only those observations for a specific name (e.g., Mary), you use the equivalence operator.  Note that we are using double equal signs (the equivalence operator), not a single equal sign.

filter(babynames, name == "Mary")

# A tibble: 268 x 5
    year sex   name      n     prop
   <dbl> <chr> <chr> <int>    <dbl>
 1  1880 F     Mary   7065 0.0724  
 2  1880 M     Mary     27 0.000228
 3  1881 F     Mary   6919 0.0700  
 4  1881 M     Mary     29 0.000268
 5  1882 F     Mary   8148 0.0704  
 6  1882 M     Mary     30 0.000246
 7  1883 F     Mary   8012 0.0667  
 8  1883 M     Mary     32 0.000284
 9  1884 F     Mary   9217 0.0670  
10  1884 M     Mary     36 0.000293
# … with 258 more rows

If you wanted all the names except Mary, you use the ’not equals’ operator:

filter(babynames, name != "Mary")

# A tibble: 1,924,397 x 5
    year sex   name          n   prop
   <dbl> <chr> <chr>     <int>  <dbl>
 1  1880 F     Anna       2604 0.0267
 2  1880 F     Emma       2003 0.0205
 3  1880 F     Elizabeth  1939 0.0199
 4  1880 F     Minnie     1746 0.0179
 5  1880 F     Margaret   1578 0.0162
 6  1880 F     Ida        1472 0.0151
 7  1880 F     Alice      1414 0.0145
 8  1880 F     Bertha     1320 0.0135
 9  1880 F     Sarah      1288 0.0132
10  1880 F     Annie      1258 0.0129
# … with 1,924,387 more rows

and if you wanted names within a defined set—e.g., names of British
queens—you can use %in%:

filter(babynames, name %in% c("Mary", "Elizabeth", "Victoria"))

# A tibble: 772 x 5
    year sex   name          n      prop
   <dbl> <chr> <chr>     <int>     <dbl>
 1  1880 F     Mary       7065 0.0724   
 2  1880 F     Elizabeth  1939 0.0199   
 3  1880 F     Victoria     93 0.000953 
 4  1880 M     Mary         27 0.000228 
 5  1880 M     Elizabeth     9 0.0000760
 6  1881 F     Mary       6919 0.0700   
 7  1881 F     Elizabeth  1852 0.0187   
 8  1881 F     Victoria    117 0.00118  
 9  1881 M     Mary         29 0.000268 
10  1882 F     Mary       8148 0.0704   
# … with 762 more rows

This gives you data for the names in the vector on the right hand side of %in%.  And you can always invert an expression to get its opposite.  So, for instance, if you wanted to get rid of all Marys, Elizabeths, and Victorias:

filter(babynames, !(name %in% c("Mary", "Elizabeth", "Victoria")))

# A tibble: 1,923,893 x 5
    year sex   name         n   prop
   <dbl> <chr> <chr>    <int>  <dbl>
 1  1880 F     Anna      2604 0.0267
 2  1880 F     Emma      2003 0.0205
 3  1880 F     Minnie    1746 0.0179
 4  1880 F     Margaret  1578 0.0162
 5  1880 F     Ida       1472 0.0151
 6  1880 F     Alice     1414 0.0145
 7  1880 F     Bertha    1320 0.0135
 8  1880 F     Sarah     1288 0.0132
 9  1880 F     Annie     1258 0.0129
10  1880 F     Clara     1226 0.0126
# … with 1,923,883 more rows

You can include as many expressions as you like as additional arguments to filter() and it will only pull out the rows for which all of the expressions for that row evaluate to TRUE.  For instance, filter(babynames, year > 2000, prop > .01) will pull out only those observations beyond the year 2000 that represent greater than 1% of the names for a given sex; any observation where either expression is false will be excluded.  This ability to string together criteria makes filter() a very powerful member of the Wickham Six.

Exercises with filter()

Pull out the babynames given to at least 5% (.05) of babies (in any given year)

Solution

filter(babynames, prop >= .05) 

# A tibble: 168 x 5
    year sex   name        n   prop
   <dbl> <chr> <chr>   <int>  <dbl>
 1  1880 F     Mary     7065 0.0724
 2  1880 M     John     9655 0.0815
 3  1880 M     William  9532 0.0805
 4  1880 M     James    5927 0.0501
 5  1881 F     Mary     6919 0.0700
 6  1881 M     John     8769 0.0810
 7  1881 M     William  8524 0.0787
 8  1881 M     James    5441 0.0502
 9  1882 F     Mary     8148 0.0704
10  1882 M     John     9557 0.0783
# … with 158 more rows

Pick three people in this room and find their names

Solution

filter(babynames, name %in% c("Dale", "Luc", "Oliver"))

# A tibble: 531 x 5
    year sex   name       n      prop
   <dbl> <chr> <chr>  <int>     <dbl>
 1  1880 M     Oliver   234 0.00198  
 2  1881 M     Oliver   238 0.00220  
 3  1881 M     Dale       6 0.0000554
 4  1882 M     Oliver   244 0.00200  
 5  1882 M     Dale       7 0.0000574
 6  1883 M     Oliver   219 0.00195  
 7  1883 M     Dale      11 0.0000978
 8  1884 M     Oliver   245 0.00200  
 9  1884 M     Dale      10 0.0000815
10  1885 M     Oliver   258 0.00223  
# … with 521 more rows
…
