Linear mixed-effects models with crossed random factors of subjects and stimuli
…
items
table of stimulus data including item_id and item random effect

trials
table of trials enumerating encounters between subjects/stimuli

Then you will merge together the information in the three tables, and calculate the response variable according to the model formula above.

Generate a sample of stimuli

Let’s randomly generate our 50 items. Create a tibble called item like the one below, where iri are the by-item random intercepts (drawn from a normal distribution with variance \(\omega_{00}^2\) = iri_sd^2).  Half of the words are of type NOUN (cond = -.5) and half of type VERB (cond = .5).

# A tibble: 50 x 3
   item_id  cond   iri
     <int> <dbl> <dbl>
 1       1  -0.5  14.9
 2       2   0.5 -86.3
 3       3  -0.5 -12.8
 4       4   0.5 -13.9
 5       5  -0.5  55.6
 6       6   0.5 -45.9
 7       7  -0.5 -42.0
 8       8   0.5 -87.6
 9       9  -0.5 -97.4
10      10   0.5 -85.2
# … with 40 more rows
…
by_subj_rfx <- MASS::mvrnorm(nsubj, mu = c(sri = 0, srs = 0), Sigma = mx)

subjects <- as.tibble(by_subj_rfx) %>%
  mutate(subj_id = row_number()) %>%
  select(subj_id, everything())

Generate a sample of encounters (trials)

Each trial is an encounter between a particular subject and stimulus.  In this experiment, each subject will see each stimulus.  Generate a table trials that lists the encounters in the experiments. Note: each participant encounters each stimulus item once.  Use the crossing() function to create all possible encounters.

Now apply this example to generate the table below, where err is the residual term, drawn from \(N \sim \left(0, \sigma^2\right)\), where \(\sigma\) is err_sd.

# A tibble: 5,000 x 3
   subj_id item_id     err
     <int>   <int>   <dbl>
 1       1       1 -134.  
 2       1       2 -127.  
 3       1       3  142.  
 4       1       4 -335.  
 5       1       5  120.  
 6       1       6   -9.00
 7       1       7   44.7 
 8       1       8   48.4 
 9       1       9  -63.7 
10       1      10 -304.  
# … with 4,990 more rows

Solution

trials <- crossing(subj_id = subjects %>% pull(subj_id),
                   item_id = items %>% pull(item_id)) %>%
  mutate(err = rnorm(nrow(subjects) * nrow(items), mean = 0, sd = err_sd))

Join subjects, items, and trials

Merge the information in subjects, items, and trials to create the full dataset dat, which looks like this:

# A tibble: 5,000 x 7
   subj_id item_id   sri   iri   srs  cond     err
     <int>   <int> <dbl> <dbl> <dbl> <dbl>   <dbl>
 1       1       1 -156.  14.9 -49.6  -0.5 -134.  
 2       1       2 -156. -86.3 -49.6   0.5 -127.  
 3       1       3 -156. -12.8 -49.6  -0.5  142.  
 4       1       4 -156. -13.9 -49.6   0.5 -335.  
 5       1       5 -156.  55.6 -49.6  -0.5  120.  
 6       1       6 -156. -45.9 -49.6   0.5   -9.00
 7       1       7 -156. -42.0 -49.6  -0.5   44.7 
 8       1       8 -156. -87.6 -49.6   0.5   48.4 
 9       1       9 -156. -97.4 -49.6  -0.5  -63.7 
10       1      10 -156. -85.2 -49.6   0.5 -304.  
# … with 4,990 more rows
…
dat_sim <- subjects %>%
  inner_join(trials, "subj_id") %>%
  inner_join(items, "item_id") %>%
  arrange(subj_id, item_id) %>%
  select(subj_id, item_id, sri, iri, srs, cond, err)

Create the response variable

Add the response variable Y to dat according to the model formula:

\(Y_{si} = \beta_0 + S_{0s} + I_{0i} + (\beta_1 + S_{1s})X_{i} + e_{si}\)

so that the resulting table (dat2) looks like this:

# A tibble: 5,000 x 8
   subj_id item_id     Y   sri   iri   srs  cond     err
     <int>   <int> <dbl> <dbl> <dbl> <dbl> <dbl>   <dbl>
 1       1       1  509. -156.  14.9 -49.6  -0.5 -134.  
 2       1       2  446. -156. -86.3 -49.6   0.5 -127.  
 3       1       3  758. -156. -12.8 -49.6  -0.5  142.  
 4       1       4  310. -156. -13.9 -49.6   0.5 -335.  
 5       1       5  805. -156.  55.6 -49.6  -0.5  120.  
 6       1       6  604. -156. -45.9 -49.6   0.5   -9.00
 7       1       7  631. -156. -42.0 -49.6  -0.5   44.7 
 8       1       8  620. -156. -87.6 -49.6   0.5   48.4 
 9       1       9  468. -156. -97.4 -49.6  -0.5  -63.7 
10       1      10  270. -156. -85.2 -49.6   0.5 -304.  
# … with 4,990 more rows
…
