Solution to Data Skills Self-Assessment
…
Now well hack into the trial data to calculate descriptive statistics and to prepare the data for our inferential test.

The overall mean reaction time was 0 ms (SD = 0) for congruent trials and 0 ms (SD = 0) for incongruent trials, yielding an overall Stroop effect of 0 ms (SD = 0). The Stroop effect for native speakers (M = 0; SD = 0) was numerically choose one: larger/smaller than the Stroop effect for non-native speakers (M = 0; SD = 0).

Note that we need to calculate a Stroop effect, which is defined as the difference between incongruent and congruent response times. And we will ultimately need to have a Stroop effect calculated for each speaker. So well need to (1) calculate means for each condition for each speaker and then (2) calculate the differences.

subj_means <- stroop3 %>%
  group_by(sub_id, congruency) %>%
  summarise(m = mean(rt)) %>%
  ungroup()

subj_means

## # A tibble: 192 x 3
##    sub_id congruency      m
##     <int> <chr>       <dbl>
##  1      1 congruent    693.
##  2      1 incongruent  753.
##  3      2 congruent    683.
##  4      2 incongruent  754.
##  5      3 congruent    604.
##  6      3 incongruent  700.
##  7      4 congruent    644.
##  8      4 incongruent  746.
##  9      5 congruent    664 
## 10      5 incongruent  797.
## #  with 182 more rows

OK, that looks good, but how do we now calculate the Stroop effect for each speaker? Lets transform the data from long to wide using pivot_wider() from the tidyr package, which was loaded when we loaded in the tidyverse.

(Note: You may have learned to go from long to wide using the spread() function; since then, spread() has been superceded by pivot_longer(), which has a better name and clearer syntax. The spread() function will continue to exist in tidyr for the foreseeable future, so feel free to continue using it. To use the pivot_wider() function, you need to have tidyr version 1.0.0 or higher. The version of the tidyverse packages are printed when you run library("tidyverse") inside a fresh R session. If you need to update your tidyverse installation, type tidyverse::tidyverse_update() in the console to find out how. Type vignette("pivot") in the console to find out more about these new functions.)

wide_data <- subj_means %>%
  pivot_wider(names_from = congruency, values_from = m) %>%
  mutate(effect = incongruent - congruent) 

wide_data

## # A tibble: 96 x 4
##    sub_id congruent incongruent effect
##     <int>     <dbl>       <dbl>  <dbl>
##  1      1      693.        753.   60  
##  2      2      683.        754.   70.7
##  3      3      604.        700.   95.8
##  4      4      644.        746.  102. 
##  5      5      664         797.  133. 
##  6      6      601.        691.   90  
##  7      7      576.        685   109. 
##  8      8      618         672.   54.4
##  9      9      605         700    95  
## 10     10      603.        640.   37.1
## #  with 86 more rows

There is one thing that we are missing: which group (native or non-native) each subject belongs to. We can get this using an inner_join().

joined <- wide_data %>%
  inner_join(demog_filt, "sub_id")

joined

## # A tibble: 96 x 6
##    sub_id congruent incongruent effect   age native_speaker
##     <int>     <dbl>       <dbl>  <dbl> <int> <chr>         
##  1      1      693.        753.   60      21 no            
##  2      2      683.        754.   70.7    20 no            
##  3      3      604.        700.   95.8    19 yes           
##  4      4      644.        746.  102.     20 no            
##  5      5      664         797.  133.     22 no            
##  6      6      601.        691.   90      20 yes           
##  7      7      576.        685   109.     18 yes           
##  8      8      618         672.   54.4    23 yes           
##  9      9      605         700    95      24 yes           
## 10     10      603.        640.   37.1    24 yes           
## #  with 86 more rows
…
