Tidy data
…
Figure 3: Tidy representation.

Tidy tools: Why you should care about tidy data

The tidy format is a clean, predictable data structure. We don’t just make our data tidy because it looks nice, but because having tidy data allows us to work with tidy tools.  A tidy tool is a function to transform data that takes tidy data as input and returns tidy data as output.  All of the functions in the tidyverse packages have been designed as tidy tools, and thus are interoperable. In contrast, many of the older functions in base R do not yield tidy output, which impaires interoperability.

Example: Deriving a tidy table of babynames with distinct()

Let’s imagine you are a linguist interested in whether trends in babynames have a phonological basis; for example, do girls names ending with a vowel become popular at certain times in history?  You would need to derive information about the sound properties of each name in the babynames dataset.  A good place to start would be to derive a table containing all of the unique names in the dataset; once you’ve created the table then you could fill in the table with additional information, and later recombine it with the popularity data.  The distinct() function is the function you need to do this.

name_table <- babynames %>% distinct(name) %>% arrange(name)

name_table

# A tibble: 97,310 x 1
   name     
   <chr>    
 1 Aaban    
 2 Aabha    
 3 Aabid    
 4 Aabir    
 5 Aabriella
 6 Aada     
 7 Aadam    
 8 Aadan    
 9 Aadarsh  
10 Aaden    
# … with 97,300 more rows

Now name_table is a table of the nrow(name_table) [1] 97310 distinct names in the dataset.  Let’s determine whether the name ends with a vowel using the substr() function, which extracts a substring from a character value.

name_table %>%
  mutate(end_char = substr(name, nchar(name), nchar(name)),
         is_vowel = end_char %in% c("a", "e", "i", "o", "u"))

# A tibble: 97,310 x 3
   name      end_char is_vowel
   <chr>     <chr>    <lgl>   
 1 Aaban     n        FALSE   
 2 Aabha     a        TRUE    
 3 Aabid     d        FALSE   
 4 Aabir     r        FALSE   
 5 Aabriella a        TRUE    
 6 Aada      a        TRUE    
 7 Aadam     m        FALSE   
 8 Aadan     n        FALSE   
 9 Aadarsh   h        FALSE   
10 Aaden     n        FALSE   
# … with 97,300 more rows
…
you can use a windowed operation with group_by()

Solution

distinct(babynames, name, sex) %>%
  group_by(name) %>%
  filter(n() == 1)

## alternative solution:
## distinct(babynames, name, sex) %>%
##   count(name) %>%
##   filter(n == 1)

# A tibble: 86,647 x 2
# Groups:   name [86,647]
   sex   name    
   <chr> <chr>   
 1 F     Lulu    
 2 F     Belle   
 3 F     Mayme   
 4 F     Mathilda
 5 F     Hettie  
 6 F     Fanny   
 7 F     Adelaide
 8 F     Lelia   
 9 F     Nelle   
10 F     Minerva 
# … with 86,637 more rows
…
Reshape from wide to long

The dataset is in wide format. Use the appropriate tidyr function to reshape it to long, with variables named item (which item, Op1, Ne1, etc) and score (3, 4, 0, 6, etc).  Store the long data in the variable big5_long

Solution

big5_long <- pivot_longer(big5, Op1:Ex9,
                          names_to = "item", values_to = "score")  

big5_long

# A tibble: 615,000 x 4
   user_id date       item  score
     <dbl> <date>     <chr> <dbl>
 1       0 2006-03-23 Op1       3
 2       0 2006-03-23 Ne1       4
 3       0 2006-03-23 Ne2       0
 4       0 2006-03-23 Op2       6
 5       0 2006-03-23 Ex1       3
 6       0 2006-03-23 Ex2       3
 7       0 2006-03-23 Co1       3
 8       0 2006-03-23 Co2       3
 9       0 2006-03-23 Ne3       0
10       0 2006-03-23 Ag1       2
# … with 614,990 more rows

Split the item variable into two variables

Try to use the separate() function to make your table look like this:

# A tibble: 615,000 x 5
   user_id date       trait question score
     <dbl> <date>     <chr>    <int> <dbl>
 1       0 2006-03-23 Op           1     3
 2       0 2006-03-23 Ne           1     4
 3       0 2006-03-23 Ne           2     0
 4       0 2006-03-23 Op           2     6
 5       0 2006-03-23 Ex           1     3
 6       0 2006-03-23 Ex           2     3
 7       0 2006-03-23 Co           1     3
 8       0 2006-03-23 Co           2     3
 9       0 2006-03-23 Ne           3     0
10       0 2006-03-23 Ag           1     2
# … with 614,990 more rows
…
big5_long2 <- big5_long %>%
  separate(item, c("trait", "question"), sep = 2, convert = TRUE)

Calculate scores for each trait/user_id combination

Now calculate trait scores for each user_id and trait by summing the scores.  Store the result in big5_scores.

Solution

big5_long2 %>%
  group_by(user_id, trait) %>%
  summarise(tot = sum(score, na.rm = FALSE), .groups = "drop")

# A tibble: 75,000 x 3
   user_id trait   tot
     <dbl> <chr> <dbl>
 1       0 Ag       NA
 2       0 Co       27
 3       0 Ex       25
 4       0 Ne       NA
 5       0 Op       20
 6       1 Ag       18
 7       1 Co       30
 8       1 Ex       24
 9       1 Ne       18
10       1 Op       30
# … with 74,990 more rows
…
big5

── Column specification ────────────────────────────────────────────────────────
cols(
  .default = col_double(),
  date = col_date(format = "")
)
ℹ Use `spec()` for the full column specifications.

# A tibble: 75,000 x 3
   user_id trait   tot
     <dbl> <chr> <dbl>
 1       0 Ag       NA
 2       0 Co       27
 3       0 Ex       25
 4       0 Ne       NA
 5       0 Op       20
 6       1 Ag       18
 7       1 Co       30
 8       1 Ex       24
 9       1 Ne       18
10       1 Op       30
# … with 74,990 more rows
…
