Data Visualization with ggplot2
…
The first thing to do is to combine the info across all our tables using joins. Copy the following code into your script.

## combine info from tidy tables
all_ratings <- ratings %>%
  inner_join(phases, c("ID", "phase_id")) %>%
  filter(keep) %>%                         # apply exclusions
  inner_join(sessions, "ID") %>%           # link to participant-level info
  inner_join(stimulus_conditions,          # map to experimental condition
             c("list_id", "stim_id")) %>% 
  select(ID, repetition, interval, trating)

all_ratings

## # A tibble: 68,800 x 4
##    ID    repetition interval  trating
##    <chr> <fct>      <fct>       <int>
##  1 S0001 new        immediate       4
##  2 S0001 new        immediate       4
##  3 S0001 new        immediate       5
##  4 S0001 new        immediate       4
##  5 S0001 new        immediate       4
##  6 S0001 new        immediate       4
##  7 S0001 new        immediate       4
##  8 S0001 new        immediate       4
##  9 S0001 repeated   immediate       5
## 10 S0001 repeated   immediate       4
## #  with 68,790 more rows
…
Hint

rmeans <- all_ratings %>%
  group_by(...) %>%
  summarize(...)

Solution

rmeans <- all_ratings %>%
  group_by(ID, repetition, interval) %>%
  summarize(mean_rating = mean(trating), .groups = "drop")

rmeans

## # A tibble: 4,300 x 4
##    ID    repetition interval  mean_rating
##  * <chr> <fct>      <fct>           <dbl>
##  1 S0001 repeated   immediate        4.62
##  2 S0001 repeated   1 day            4.69
##  3 S0001 repeated   1 week           4.62
##  4 S0001 repeated   1 month          4.69
##  5 S0001 new        immediate        4.06
##  6 S0001 new        1 day            3.94
##  7 S0001 new        1 week           4   
##  8 S0001 new        1 month          3.62
##  9 S0002 repeated   immediate        4.06
## 10 S0002 repeated   1 day            4.06
## #  with 4,290 more rows
…
Hint: How to I get means for each subject/condition combination?

data %>%
  group_by(...) %>% 
  summarise(...)

Solution

mdat2 <- mdat %>%
  group_by(SessionID, congruency) %>%
  summarize(mrate = mean(Misspec), .groups = "drop")

mdat2

## # A tibble: 86 x 3
##    SessionID congruency  mrate
##  *     <dbl> <chr>       <dbl>
##  1         1 congruent   0.167
##  2         1 incongruent 0.15 
##  3         2 congruent   0.421
##  4         2 incongruent 0.389
##  5         3 congruent   0.167
##  6         3 incongruent 0.158
##  7         4 congruent   0.526
##  8         4 incongruent 0.444
##  9         5 congruent   0.158
## 10         5 incongruent 0    
## #  with 76 more rows
…
