Factorial Plots!
…
Hint: How to I get means for each subject/condition combination?

data %>%
  group_by(...) %>% 
  summarise(...)

Solution

mdat2 <- mdat %>%
  group_by(SessionID, congruency) %>%
  summarize(mrate = mean(Misspec))

mdat2

## # A tibble: 86 x 3
## # Groups:   SessionID [43]
##    SessionID congruency  mrate
##        <dbl> <chr>       <dbl>
##  1         1 congruent   0.167
##  2         1 incongruent 0.15 
##  3         2 congruent   0.421
##  4         2 incongruent 0.389
##  5         3 congruent   0.167
##  6         3 incongruent 0.158
##  7         4 congruent   0.526
##  8         4 incongruent 0.444
##  9         5 congruent   0.158
## 10         5 incongruent 0    
## #  with 76 more rows
…
