Intro to coding in R/RStudio
…
Viewing your tibble

Always, always, always, look at your data once youve created a table or loaded it in from a file. Also look at it after each step that transforms your tibble. When you view your table, it is best to do this in the console unless you specifically want this to be part of a script or report.

There are three ways to look at your tibble: View() [*NB: capital V], print(), and glimpse().

The print() method can be run explicitly, but is more commonly called by just typing the variable name on the blank line. Usually we only call print() if we want fine control of how the information is displayed.

Note that the default is not to print the entire table, but just the first 10 rows. Lets look at the starwars table that is built into the tidyverse.

library("tidyverse")
starwars

## # A tibble: 87 x 14
##    name    height  mass hair_color  skin_color eye_color birth_year sex   gender
##    <chr>    <int> <dbl> <chr>       <chr>      <chr>          <dbl> <chr> <chr> 
##  1 Luke S    172    77 blond       fair       blue            19   male  mascu
##  2 C-3PO      167    75 <NA>        gold       yellow         112   none  mascu
##  3 R2-D2       96    32 <NA>        white, bl red             33   none  mascu
##  4 Darth     202   136 none        white      yellow          41.9 male  mascu
##  5 Leia O    150    49 brown       light      brown           19   fema femin
##  6 Owen L    178   120 brown, grey light      blue            52   male  mascu
##  7 Beru W    165    75 brown       light      blue            47   fema femin
##  8 R5-D4       97    32 <NA>        white, red red             NA   none  mascu
##  9 Biggs     183    84 black       light      brown           24   male  mascu
## 10 Obi-Wa    182    77 auburn, wh fair       blue-gray       57   male  mascu
## #  with 77 more rows, and 5 more variables: homeworld <chr>, species <chr>,
## #   films <list>, vehicles <list>, starships <list>
…
