…
*The effect of a predictor variable on the response variable may depend upon
the value(s) of one or more other predictor variables.*

** Do stronger people have lower voices?

- HGS: Hand grip strength
- F0: voice fundamental frequency

#+begin_src R :exports results
hgs
#+end_src

#+RESULTS:
#+begin_example
# A tibble: 221 x 4
      ID sex     HGS    F0
   <int> <chr> <dbl> <dbl>
 1     4 male   45.5 115. 
 2     7 male   31   147. 
 3     8 male   40   123. 
 4    19 male   37   120. 
 5    21 male   45    94.7
 6    22 male   50    98.8
 7    30 male   31    94.7
 8    31 male   47.5 124. 
 9    35 male   34    92.6
10    36 male   30   111. 
# … with 211 more rows
…
